rom/simulation/qsim/rom_5x5.msim.vcd
$comment
	File created using the following command:
		vcd file rom_5x5.msim.vcd -direction
$end
$date
	Fri May 03 20:55:13 2024
$end
$version
	ModelSim Version 10.1d
$end
$timescale
	1ps
$end
$scope module rom_5x5_vlg_vec_tst $end
$var reg 5 ! address [4:0] $end
$var wire 1 " data_out [4] $end
$var wire 1 # data_out [3] $end
$var wire 1 $ data_out [2] $end
$var wire 1 % data_out [1] $end
$var wire 1 & data_out [0] $end
$var wire 1 ' sampler $end
$scope module i1 $end
$var wire 1 ( gnd $end
$var wire 1 ) vcc $end
$var wire 1 * unknown $end
$var tri1 1 + devclrn $end
$var tri1 1 , devpor $end
$var tri1 1 - devoe $end
$var wire 1 . address[3]~input_o $end
$var wire 1 / address[4]~input_o $end
$var wire 1 0 data_out[0]~output_o $end
$var wire 1 1 data_out[1]~output_o $end
$var wire 1 2 data_out[2]~output_o $end
$var wire 1 3 data_out[3]~output_o $end
$var wire 1 4 data_out[4]~output_o $end
$var wire 1 5 address[2]~input_o $end
$var wire 1 6 address[0]~input_o $end
$var wire 1 7 address[1]~input_o $end
$var wire 1 8 Mux2~0_combout $end
$var wire 1 9 Mux1~0_combout $end
$var wire 1 : Mux0~0_combout $end
$upscope $end
$upscope $end
$enddefinitions $end
#0
$dumpvars
b0 !
0&
0%
0$
0#
0"
x'
0(
1)
x*
1+
1,
1-
0.
0/
00
01
02
03
04
05
06
07
08
09
0:
$end
#15000
b10000 !
b11000 !
b11100 !
b11110 !
b11111 !
16
17
1.
1/
0'
15
14
10
1"
1&
18
11
1%
#30000
b1111 !
b111 !
b11 !
b1 !
b0 !
06
07
0.
0/
1'
05
04
00
0"
0&
08
01
0%
#45000
b10000 !
b11000 !
b11100 !
b11110 !
b11111 !
16
17
1.
1/
0'
15
14
10
1"
1&
18
11
1%
#60000
b1111 !
b111 !
b11 !
b1 !
b0 !
06
07
0.
0/
1'
05
04
00
0"
0&
08
01
0%
#75000
b10000 !
b11000 !
b11100 !
b11110 !
b11111 !
16
17
1.
1/
0'
15
14
10
1"
1&
18
11
1%
#90000
b1111 !
b111 !
b11 !
b1 !
b0 !
06
07
0.
0/
1'
05
04
00
0"
0&
08
01
0%
#105000
b10000 !
b11000 !
b11100 !
b11110 !
b11111 !
16
17
1.
1/
0'
15
14
10
1"
1&
18
11
1%
#120000
b1111 !
b111 !
b11 !
b1 !
b0 !
06
07
0.
0/
1'
05
04
00
0"
0&
08
01
0%
#135000
b10000 !
b11000 !
b11100 !
b11110 !
b11111 !
16
17
1.
1/
0'
15
14
10
1"
1&
18
11
1%
#150000
b1111 !
b111 !
b11 !
b1 !
b0 !
06
07
0.
0/
1'
05
04
00
0"
0&
08
01
0%
#165000
b10000 !
b11000 !
b11100 !
b11110 !
b11111 !
16
17
1.
1/
0'
15
14
10
1"
1&
18
11
1%
#180000
b1111 !
b111 !
b11 !
b1 !
b0 !
06
07
0.
0/
1'
05
04
00
0"
0&
08
01
0%
#195000
b10000 !
b11000 !
b11100 !
b11110 !
b11111 !
16
17
1.
1/
0'
15
14
10
1"
1&
18
11
1%
#210000
b1111 !
b111 !
b11 !
b1 !
b0 !
06
07
0.
0/
1'
05
04
00
0"
0&
08
01
0%
#225000
b10000 !
b11000 !
b11100 !
b11110 !
b11111 !
16
17
1.
1/
0'
15
14
10
1"
1&
18
11
1%
#240000
b1111 !
b111 !
b11 !
b1 !
b0 !
06
07
0.
0/
1'
05
04
00
0"
0&
08
01
0%
#255000
b10000 !
b11000 !
b11100 !
b11110 !
b11111 !
16
17
1.
1/
0'
15
14
10
1"
1&
18
11
1%
#270000
b1111 !
b111 !
b11 !
b1 !
b0 !
06
07
0.
0/
1'
05
04
00
0"
0&
08
01
0%
#285000
b10000 !
b11000 !
b11100 !
b11110 !
b11111 !
16
17
1.
1/
0'
15
14
10
1"
1&
18
11
1%
#300000
b1111 !
b111 !
b11 !
b1 !
b0 !
06
07
0.
0/
1'
05
04
00
0"
0&
08
01
0%
#315000
b10000 !
b11000 !
b11100 !
b11110 !
b11111 !
16
17
1.
1/
0'
15
14
10
1"
1&
18
11
1%
#330000
b1111 !
b111 !
b11 !
b1 !
b0 !
06
07
0.
0/
1'
05
04
00
0"
0&
08
01
0%
#345000
b10000 !
b11000 !
b11100 !
b11110 !
b11111 !
16
17
1.
1/
0'
15
14
10
1"
1&
18
11
1%
#360000
b1111 !
b111 !
b11 !
b1 !
b0 !
06
07
0.
0/
1'
05
04
00
0"
0&
08
01
0%
#375000
b10000 !
b11000 !
b11100 !
b11110 !
b11111 !
16
17
1.
1/
0'
15
14
10
1"
1&
18
11
1%
#390000
b1111 !
b111 !
b11 !
b1 !
b0 !
06
07
0.
0/
1'
05
04
00
0"
0&
08
01
0%
#405000
b10000 !
b11000 !
b11100 !
b11110 !
b11111 !
16
17
1.
1/
0'
15
14
10
1"
1&
18
11
1%
#420000
b1111 !
b111 !
b11 !
b1 !
b0 !
06
07
0.
0/
1'
05
04
00
0"
0&
08
01
0%
#435000
b10000 !
b11000 !
b11100 !
b11110 !
b11111 !
16
17
1.
1/
0'
15
14
10
1"
1&
18
11
1%
#450000
b1111 !
b111 !
b11 !
b1 !
b0 !
06
07
0.
0/
1'
05
04
00
0"
0&
08
01
0%
#465000
b10000 !
b11000 !
b11100 !
b11110 !
b11111 !
16
17
1.
1/
0'
15
14
10
1"
1&
18
11
1%
#480000
b1111 !
b111 !
b11 !
b1 !
b0 !
06
07
0.
0/
1'
05
04
00
0"
0&
08
01
0%
#495000
b10000 !
b11000 !
b11100 !
b11110 !
b11111 !
16
17
1.
1/
0'
15
14
10
1"
1&
18
11
1%
#510000
b1111 !
b111 !
b11 !
b1 !
b0 !
06
07
0.
0/
1'
05
04
00
0"
0&
08
01
0%
#525000
b10000 !
b11000 !
b11100 !
b11110 !
b11111 !
16
17
1.
1/
0'
15
14
10
1"
1&
18
11
1%
#540000
b1111 !
b111 !
b11 !
b1 !
b0 !
06
07
0.
0/
1'
05
04
00
0"
0&
08
01
0%
#555000
b10000 !
b11000 !
b11100 !
b11110 !
b11111 !
16
17
1.
1/
0'
15
14
10
1"
1&
18
11
1%
#570000
b1111 !
b111 !
b11 !
b1 !
b0 !
06
07
0.
0/
1'
05
04
00
0"
0&
08
01
0%
#585000
b10000 !
b11000 !
b11100 !
b11110 !
b11111 !
16
17
1.
1/
0'
15
14
10
1"
1&
18
11
1%
#600000
b1111 !
b111 !
b11 !
b1 !
b0 !
06
07
0.
0/
1'
05
04
00
0"
0&
08
01
0%
#615000
b10000 !
b11000 !
b11100 !
b11110 !
b11111 !
16
17
1.
1/
0'
15
14
10
1"
1&
18
11
1%
#630000
b1111 !
b111 !
b11 !
b1 !
b0 !
06
07
0.
0/
1'
05
04
00
0"
0&
08
01
0%
#645000
b10000 !
b11000 !
b11100 !
b11110 !
b11111 !
16
17
1.
1/
0'
15
14
10
1"
1&
18
11
1%
#660000
b1111 !
b111 !
b11 !
b1 !
b0 !
06
07
0.
0/
1'
05
04
00
0"
0&
08
01
0%
#675000
b10000 !
b11000 !
b11100 !
b11110 !
b11111 !
16
17
1.
1/
0'
15
14
10
1"
1&
18
11
1%
#690000
b1111 !
b111 !
b11 !
b1 !
b0 !
06
07
0.
0/
1'
05
04
00
0"
0&
08
01
0%
#705000
b10000 !
b11000 !
b11100 !
b11110 !
b11111 !
16
17
1.
1/
0'
15
14
10
1"
1&
18
11
1%
#720000
b1111 !
b111 !
b11 !
b1 !
b0 !
06
07
0.
0/
1'
05
04
00
0"
0&
08
01
0%
#735000
b10000 !
b11000 !
b11100 !
b11110 !
b11111 !
16
17
1.
1/
0'
15
14
10
1"
1&
18
11
1%
#750000
b1111 !
b111 !
b11 !
b1 !
b0 !
06
07
0.
0/
1'
05
04
00
0"
0&
08
01
0%
#765000
b10000 !
b11000 !
b11100 !
b11110 !
b11111 !
16
17
1.
1/
0'
15
14
10
1"
1&
18
11
1%
#780000
b1111 !
b111 !
b11 !
b1 !
b0 !
06
07
0.
0/
1'
05
04
00
0"
0&
08
01
0%
#795000
b10000 !
b11000 !
b11100 !
b11110 !
b11111 !
16
17
1.
1/
0'
15
14
10
1"
1&
18
11
1%
#810000
b1111 !
b111 !
b11 !
b1 !
b0 !
06
07
0.
0/
1'
05
04
00
0"
0&
08
01
0%
#825000
b10000 !
b11000 !
b11100 !
b11110 !
b11111 !
16
17
1.
1/
0'
15
14
10
1"
1&
18
11
1%
#840000
b1111 !
b111 !
b11 !
b1 !
b0 !
06
07
0.
0/
1'
05
04
00
0"
0&
08
01
0%
#855000
b10000 !
b11000 !
b11100 !
b11110 !
b11111 !
16
17
1.
1/
0'
15
14
10
1"
1&
18
11
1%
#870000
b1111 !
b111 !
b11 !
b1 !
b0 !
06
07
0.
0/
1'
05
04
00
0"
0&
08
01
0%
#885000
b10000 !
b11000 !
b11100 !
b11110 !
b11111 !
16
17
1.
1/
0'
15
14
10
1"
1&
18
11
1%
#900000
b1111 !
b111 !
b11 !
b1 !
b0 !
06
07
0.
0/
1'
05
04
00
0"
0&
08
01
0%
#915000
b10000 !
b11000 !
b11100 !
b11110 !
b11111 !
16
17
1.
1/
0'
15
14
10
1"
1&
18
11
1%
#930000
b1111 !
b111 !
b11 !
b1 !
b0 !
06
07
0.
0/
1'
05
04
00
0"
0&
08
01
0%
#945000
b10000 !
b11000 !
b11100 !
b11110 !
b11111 !
16
17
1.
1/
0'
15
14
10
1"
1&
18
11
1%
#960000
b1111 !
b111 !
b11 !
b1 !
b0 !
06
07
0.
0/
1'
05
04
00
0"
0&
08
01
0%
#975000
b10000 !
b11000 !
b11100 !
b11110 !
b11111 !
16
17
1.
1/
0'
15
14
10
1"
1&
18
11
1%
#990000
b1111 !
b111 !
b11 !
b1 !
b0 !
06
07
0.
0/
1'
05
04
00
0"
0&
08
01
0%
