Divisor_frecuencia/Divisor_frecuencia/simulation/qsim/Divisor_frecuencia.msim.vcd
$comment
	File created using the following command:
		vcd file Divisor_frecuencia.msim.vcd -direction
$end
$date
	Mon Mar 11 15:31:21 2024
$end
$version
	ModelSim Version 10.1d
$end
$timescale
	1ps
$end
$scope module Divisor_frecuencia_vlg_vec_tst $end
$var reg 1 ! CLK $end
$var wire 1 " out1 $end
$var wire 1 # out2 $end
$var wire 1 $ sampler $end
$scope module i1 $end
$var wire 1 % gnd $end
$var wire 1 & vcc $end
$var wire 1 ' unknown $end
$var tri1 1 ( devclrn $end
$var tri1 1 ) devpor $end
$var tri1 1 * devoe $end
$var wire 1 + out1~output_o $end
$var wire 1 , out2~output_o $end
$var wire 1 - CLK~input_o $end
$var wire 1 . CLK~inputclkctrl_outclk $end
$var wire 1 / count1[2]~1_combout $end
$var wire 1 0 count1~2_combout $end
$var wire 1 1 count1~0_combout $end
$var wire 1 2 out1~0_combout $end
$var wire 1 3 out1~reg0_q $end
$var wire 1 4 count2~0_combout $end
$var wire 1 5 Divisor_frecuencia:count2[0]~q $end
$var wire 1 6 Add1~0_combout $end
$var wire 1 7 Divisor_frecuencia:count2[2]~q $end
$var wire 1 8 count2~1_combout $end
$var wire 1 9 Divisor_frecuencia:count2[1]~q $end
$var wire 1 : out2~0_combout $end
$var wire 1 ; out2~reg0_q $end
$var wire 1 < count1 [2] $end
$var wire 1 = count1 [1] $end
$var wire 1 > count1 [0] $end
$upscope $end
$upscope $end
$enddefinitions $end
#0
$dumpvars
0!
0"
0#
x$
0%
1&
x'
1(
1)
1*
0+
0,
0-
0.
0/
00
11
02
03
14
05
06
07
08
09
0:
0;
0>
0=
0<
$end
#5000
1!
1-
1.
0$
15
1>
18
04
01
10
#10000
0!
0-
0.
1$
#15000
1!
1-
1.
0$
19
05
0>
1=
1:
08
12
00
#20000
0!
0-
0.
1$
#25000
1!
1-
1.
0$
09
0=
1;
13
14
11
1,
1+
1#
1"
#30000
0!
0-
0.
1$
#35000
1!
1-
1.
0$
15
1>
18
04
01
10
#40000
0!
0-
0.
1$
#45000
1!
1-
1.
0$
19
05
0>
1=
0:
08
02
00
#50000
0!
0-
0.
1$
#55000
1!
1-
1.
0$
09
0=
0;
03
14
11
0,
0+
0#
0"
#60000
0!
0-
0.
1$
#65000
1!
1-
1.
0$
15
1>
18
04
01
10
#70000
0!
0-
0.
1$
#75000
1!
1-
1.
0$
19
05
0>
1=
1:
08
12
00
#80000
0!
0-
0.
1$
#85000
1!
1-
1.
0$
09
0=
1;
13
14
11
1,
1+
1#
1"
#90000
0!
0-
0.
1$
#95000
1!
1-
1.
0$
15
1>
18
04
01
10
#100000
0!
0-
0.
1$
#105000
1!
1-
1.
0$
19
05
0>
1=
0:
08
02
00
#110000
0!
0-
0.
1$
#115000
1!
1-
1.
0$
09
0=
0;
03
14
11
0,
0+
0#
0"
#120000
0!
0-
0.
1$
#125000
1!
1-
1.
0$
15
1>
18
04
01
10
#130000
0!
0-
0.
1$
#135000
1!
1-
1.
0$
19
05
0>
1=
1:
08
12
00
#140000
0!
0-
0.
1$
#145000
1!
1-
1.
0$
09
0=
1;
13
14
11
1,
1+
1#
1"
#150000
0!
0-
0.
1$
#155000
1!
1-
1.
0$
15
1>
18
04
01
10
#160000
0!
0-
0.
1$
#165000
1!
1-
1.
0$
19
05
0>
1=
0:
08
02
00
#170000
0!
0-
0.
1$
#175000
1!
1-
1.
0$
09
0=
0;
03
14
11
0,
0+
0#
0"
#180000
0!
0-
0.
1$
#185000
1!
1-
1.
0$
15
1>
18
04
01
10
#190000
0!
0-
0.
1$
#195000
1!
1-
1.
0$
19
05
0>
1=
1:
08
12
00
#200000
0!
0-
0.
1$
#205000
1!
1-
1.
0$
09
0=
1;
13
14
11
1,
1+
1#
1"
#210000
0!
0-
0.
1$
#215000
1!
1-
1.
0$
15
1>
18
04
01
10
#220000
0!
0-
0.
1$
#225000
1!
1-
1.
0$
19
05
0>
1=
0:
08
02
00
#230000
0!
0-
0.
1$
#235000
1!
1-
1.
0$
09
0=
0;
03
14
11
0,
0+
0#
0"
#240000
0!
0-
0.
1$
#245000
1!
1-
1.
0$
15
1>
18
04
01
10
#250000
0!
0-
0.
1$
#255000
1!
1-
1.
0$
19
05
0>
1=
1:
08
12
00
#260000
0!
0-
0.
1$
#265000
1!
1-
1.
0$
09
0=
1;
13
14
11
1,
1+
1#
1"
#270000
0!
0-
0.
1$
#275000
1!
1-
1.
0$
15
1>
18
04
01
10
#280000
0!
0-
0.
1$
#285000
1!
1-
1.
0$
19
05
0>
1=
0:
08
02
00
#290000
0!
0-
0.
1$
#295000
1!
1-
1.
0$
09
0=
0;
03
14
11
0,
0+
0#
0"
#300000
0!
0-
0.
1$
#305000
1!
1-
1.
0$
15
1>
18
04
01
10
#310000
0!
0-
0.
1$
#315000
1!
1-
1.
0$
19
05
0>
1=
1:
08
12
00
#320000
0!
0-
0.
1$
#325000
1!
1-
1.
0$
09
0=
1;
13
14
11
1,
1+
1#
1"
#330000
0!
0-
0.
1$
#335000
1!
1-
1.
0$
15
1>
18
04
01
10
#340000
0!
0-
0.
1$
#345000
1!
1-
1.
0$
19
05
0>
1=
0:
08
02
00
#350000
0!
0-
0.
1$
#355000
1!
1-
1.
0$
09
0=
0;
03
14
11
0,
0+
0#
0"
#360000
0!
0-
0.
1$
#365000
1!
1-
1.
0$
15
1>
18
04
01
10
#370000
0!
0-
0.
1$
#375000
1!
1-
1.
0$
19
05
0>
1=
1:
08
12
00
#380000
0!
0-
0.
1$
#385000
1!
1-
1.
0$
09
0=
1;
13
14
11
1,
1+
1#
1"
#390000
0!
0-
0.
1$
#395000
1!
1-
1.
0$
15
1>
18
04
01
10
#400000
0!
0-
0.
1$
#405000
1!
1-
1.
0$
19
05
0>
1=
0:
08
02
00
#410000
0!
0-
0.
1$
#415000
1!
1-
1.
0$
09
0=
0;
03
14
11
0,
0+
0#
0"
#420000
0!
0-
0.
1$
#425000
1!
1-
1.
0$
15
1>
18
04
01
10
#430000
0!
0-
0.
1$
#435000
1!
1-
1.
0$
19
05
0>
1=
1:
08
12
00
#440000
0!
0-
0.
1$
#445000
1!
1-
1.
0$
09
0=
1;
13
14
11
1,
1+
1#
1"
#450000
0!
0-
0.
1$
#455000
1!
1-
1.
0$
15
1>
18
04
01
10
#460000
0!
0-
0.
1$
#465000
1!
1-
1.
0$
19
05
0>
1=
0:
08
02
00
#470000
0!
0-
0.
1$
#475000
1!
1-
1.
0$
09
0=
0;
03
14
11
0,
0+
0#
0"
#480000
0!
0-
0.
1$
#485000
1!
1-
1.
0$
15
1>
18
04
01
10
#490000
0!
0-
0.
1$
#495000
1!
1-
1.
0$
19
05
0>
1=
1:
08
12
00
#500000
0!
0-
0.
1$
#505000
1!
1-
1.
0$
09
0=
1;
13
14
11
1,
1+
1#
1"
#510000
0!
0-
0.
1$
#515000
1!
1-
1.
0$
15
1>
18
04
01
10
#520000
0!
0-
0.
1$
#525000
1!
1-
1.
0$
19
05
0>
1=
0:
08
02
00
#530000
0!
0-
0.
1$
#535000
1!
1-
1.
0$
09
0=
0;
03
14
11
0,
0+
0#
0"
#540000
0!
0-
0.
1$
#545000
1!
1-
1.
0$
15
1>
18
04
01
10
#550000
0!
0-
0.
1$
#555000
1!
1-
1.
0$
19
05
0>
1=
1:
08
12
00
#560000
0!
0-
0.
1$
#565000
1!
1-
1.
0$
09
0=
1;
13
14
11
1,
1+
1#
1"
#570000
0!
0-
0.
1$
#575000
1!
1-
1.
0$
15
1>
18
04
01
10
#580000
0!
0-
0.
1$
#585000
1!
1-
1.
0$
19
05
0>
1=
0:
08
02
00
#590000
0!
0-
0.
1$
#595000
1!
1-
1.
0$
09
0=
0;
03
14
11
0,
0+
0#
0"
#600000
0!
0-
0.
1$
#605000
1!
1-
1.
0$
15
1>
18
04
01
10
#610000
0!
0-
0.
1$
#615000
1!
1-
1.
0$
19
05
0>
1=
1:
08
12
00
#620000
0!
0-
0.
1$
#625000
1!
1-
1.
0$
09
0=
1;
13
14
11
1,
1+
1#
1"
#630000
0!
0-
0.
1$
#635000
1!
1-
1.
0$
15
1>
18
04
01
10
#640000
0!
0-
0.
1$
#645000
1!
1-
1.
0$
19
05
0>
1=
0:
08
02
00
#650000
0!
0-
0.
1$
#655000
1!
1-
1.
0$
09
0=
0;
03
14
11
0,
0+
0#
0"
#660000
0!
0-
0.
1$
#665000
1!
1-
1.
0$
15
1>
18
04
01
10
#670000
0!
0-
0.
1$
#675000
1!
1-
1.
0$
19
05
0>
1=
1:
08
12
00
#680000
0!
0-
0.
1$
#685000
1!
1-
1.
0$
09
0=
1;
13
14
11
1,
1+
1#
1"
#690000
0!
0-
0.
1$
#695000
1!
1-
1.
0$
15
1>
18
04
01
10
#700000
0!
0-
0.
1$
#705000
1!
1-
1.
0$
19
05
0>
1=
0:
08
02
00
#710000
0!
0-
0.
1$
#715000
1!
1-
1.
0$
09
0=
0;
03
14
11
0,
0+
0#
0"
#720000
0!
0-
0.
1$
#725000
1!
1-
1.
0$
15
1>
18
04
01
10
#730000
0!
0-
0.
1$
#735000
1!
1-
1.
0$
19
05
0>
1=
1:
08
12
00
#740000
0!
0-
0.
1$
#745000
1!
1-
1.
0$
09
0=
1;
13
14
11
1,
1+
1#
1"
#750000
0!
0-
0.
1$
#755000
1!
1-
1.
0$
15
1>
18
04
01
10
#760000
0!
0-
0.
1$
#765000
1!
1-
1.
0$
19
05
0>
1=
0:
08
02
00
#770000
0!
0-
0.
1$
#775000
1!
1-
1.
0$
09
0=
0;
03
14
11
0,
0+
0#
0"
#780000
0!
0-
0.
1$
#785000
1!
1-
1.
0$
15
1>
18
04
01
10
#790000
0!
0-
0.
1$
#795000
1!
1-
1.
0$
19
05
0>
1=
1:
08
12
00
#800000
0!
0-
0.
1$
#805000
1!
1-
1.
0$
09
0=
1;
13
14
11
1,
1+
1#
1"
#810000
0!
0-
0.
1$
#815000
1!
1-
1.
0$
15
1>
18
04
01
10
#820000
0!
0-
0.
1$
#825000
1!
1-
1.
0$
19
05
0>
1=
0:
08
02
00
#830000
0!
0-
0.
1$
#835000
1!
1-
1.
0$
09
0=
0;
03
14
11
0,
0+
0#
0"
#840000
0!
0-
0.
1$
#845000
1!
1-
1.
0$
15
1>
18
04
01
10
#850000
0!
0-
0.
1$
#855000
1!
1-
1.
0$
19
05
0>
1=
1:
08
12
00
#860000
0!
0-
0.
1$
#865000
1!
1-
1.
0$
09
0=
1;
13
14
11
1,
1+
1#
1"
#870000
0!
0-
0.
1$
#875000
1!
1-
1.
0$
15
1>
18
04
01
10
#880000
0!
0-
0.
1$
#885000
1!
1-
1.
0$
19
05
0>
1=
0:
08
02
00
#890000
0!
0-
0.
1$
#895000
1!
1-
1.
0$
09
0=
0;
03
14
11
0,
0+
0#
0"
#900000
0!
0-
0.
1$
#905000
1!
1-
1.
0$
15
1>
18
04
01
10
#910000
0!
0-
0.
1$
#915000
1!
1-
1.
0$
19
05
0>
1=
1:
08
12
00
#920000
0!
0-
0.
1$
#925000
1!
1-
1.
0$
09
0=
1;
13
14
11
1,
1+
1#
1"
#930000
0!
0-
0.
1$
#935000
1!
1-
1.
0$
15
1>
18
04
01
10
#940000
0!
0-
0.
1$
#945000
1!
1-
1.
0$
19
05
0>
1=
0:
08
02
00
#950000
0!
0-
0.
1$
#955000
1!
1-
1.
0$
09
0=
0;
03
14
11
0,
0+
0#
0"
#960000
0!
0-
0.
1$
#965000
1!
1-
1.
0$
15
1>
18
04
01
10
#970000
0!
0-
0.
1$
#975000
1!
1-
1.
0$
19
05
0>
1=
1:
08
12
00
#980000
0!
0-
0.
1$
#985000
1!
1-
1.
0$
09
0=
1;
13
14
11
1,
1+
1#
1"
#990000
0!
0-
0.
1$
#995000
1!
1-
1.
0$
15
1>
18
04
01
10
